-8 24 -32 -64 -16 -24 -64 -24 -80 -48 -40 480
32 -24 -80 -48 -16 -64 -56 -40 568
8 -80 -32 -80 760
32 -56 -48 -24 -40 -72 -40 -72 -56 -72 -16 -24 -48 -48 -64 160
80 -80 -48 -64 -48 -48 -72 496
-48 936
-72 -56 -64 -40 -48 -8 -40 608
40 -56 -64 -80 720
24 -80 -40 -64 -72 -16 648
16 -40 8 -48 -56 -32 744
-24 -64 888
-24 -16 -8 920
-40 -32 16 -24 -48 792
-8 16 -40 -56 -24 -64 -56 -72 -80 -8 488
56 -40 -16 -72 776
-80 904
-64 -16 24 -72 -56 -8 -72 -80 -32 -80 408
16 -16 944
992
8 -64 -56 840
