20

8
9
-1
5
7
4
1
-1
4
2
-1
5
3
-1
9

6
6
4
7
8
-1
5
-1
6
-1
3
3
-1
3
5
3
2
8
-1
4

3
9
-1
8
-1
3
10
-1
9
5

1
3
-1
8
-1
3
-1
5
-1
1
-1
4
-1

9
7
4
10
-1
5
10
-1
9
-1
1

5
4
-1
5
-1
6
-1
3
-1
1
6
4
1
7
3

4
8
3
-1
9
7
3
-1
9
10
6

4
6
-1
6
3
-1
4
-1
1
1

8
10
-1
3

10
-1
5
3
-1
4
-1
10
6
2
8
-1
7
-1
9
-1
1

4
-1
4
-1
4
1
5
9
3
6
10
-1
10
-1
2
2
-1
6

10
3
8
8
10
-1
10
-1
8
-1
6
-1
8

8
9
6
1
-1
9
2
-1
2

5
2
10
9
8
5
4
8
8
-1

9
4
-1
10
-1
6
2
5
3
9
-1
7
2
-1
10
5
3
-1
7
7
-1
4
-1
3
8
-1
4

2
4
1
3
8
-1
9
5

3
-1
5
7
7
-1
8
4
1
4

10
-1
5
-1
9
-1
3
-1
10
9

3
-1
4
-1
1
9
-1
4
1
-1
9
5
3
4
4
-1
8
-1
3
-1

2
-1
7
1
5
-1
9
-1
1
7
-1
10
-1
2
-1
8
6
-1
9
