112 -8 -24 824
112 -8 -24 824
56 -48 8 -24 824
16 -56 64 -64 760
992
992
992
-32 -16 -48 872
184 -8 -8 -8 -8 736
56 -32 -40 32 -24 -40 720
992
-320 664
32 -48 64 -40 56 -32 672
40 -24 56 -48 -32 752
72 -8 896
136 -24 544 -48 -32 -48 112
344 -80 -80 -80 376
56 -32 -48 -64 -72 -48 -32 -24 -32 -48 -32 416
-24 24 -24 24 -24 24 -24 768
80 -160 -240 488
-8 -8 -8 -8 -8 -8 -8 -8 864
224 -64 688
