25

3
2
13
1
-4
-3
-2
-1
8
1

21
-1
3
2
4
7
9
1
3
5
7
1
3
-9
4
-1

30
3
2
-2
5
4
2
9
9
10

27
-1
22
20
1
10

20
26
-1
2
3
9

55
3
-2
10
2
12
-1

30
2
4
-3
3

7
-1
10
5
-1
9
-2
-1

10
2
5
10
-3
-3
10
8

10
-1
10
-1
2
2
-2
3
-2

1
4
-1
6
-1
-1
1
-1

10
10
-1
5
10
-1
1
7
6

5
-1
3
-1
8
-1
10
4
-2

7
53
2
-2
4
1
3
5
-3

42
-1
59
-1
10
20
30
40
-4
-2
-1

83
-1
10
20
30
-3
10

4
-1
91
-1
3
4
1
5
8
1
4
9
12

10
49
-2
100
2

68
-1
38
-1
124
-1

20
9
-2
-1
8

80
-1
80
-1
80
-1
80
-1
80
-1
80
-1

30
40
-1
20
10
-1
-1
4

24
13
16
-3
15
61
-1

68
-1
40
21
13
14
-2
15
-1

32
12
-1
23
-2
12
21
4
2
1
-3
