20

10
2
-1
1
10
-2
-1
7
6
5
-2

11
1
8
-2
4
-2
6
-2
1
5
1
4

11
7
-1
6
-1
4
-1
9
7
-2
1
-1

10
8
-1
2
-1
1
-1
7
-1
1
6

15
1
-1
4
-1
5
9
9
-3
2
-1
5
9
5
5
10

13
1
-1
1
-1
10
1
1
9
-4
3
-3
5
6

12
5
2
-2
-1
9
-1
4
-1
8
2
6
-2

12
5
-1
9
-1
1
5
2
5
4
-1
-3
-3

14
9
-1
5
1
-2
4
5
4
8
-3
-1
-2
-1
-1

14
10
-1
8
-1
8
-1
8
-1
3
-1
7
-1
7
5

13
4
-1
5
-1
8
3
-2
-1
6
-1
3
-1
2

10
5
-1
1
-1
7
-1
2
4
-1
-1

10
5
-1
9
10
5
-2
-2
-1
5
-1

12
4
8
-2
5
1
8
-4
2
3
8
6
3

15
8
1
7
1
-4
10
-4
1
8
1
5
-7
-5
-5
-4

15
5
3
2
-2
8
-1
1
1
-4
7
2
-2
-3
-2
-1

14
10
1
-1
1
-2
-1
8
-1
7
-1
2
-1
5
1

14
4
9
9
-3
-2
-1
1
8
9
-1
2
-1
5
7

13
10
-1
2
-1
10
3
-1
-1
4
-1
10
9
-1

13
1
10
4
-2
9
-3
2
-3
9
8
-2
-1
-2
